Analysis & Synthesis report for KeyboardIO
Sun Dec 16 20:29:33 2012
Quartus II 32-bit Version 11.1 Build 259 01/25/2012 Service Pack 2 SJ Web Edition


---------------------
; Table of Contents ;
---------------------
  1. Legal Notice
  2. Analysis & Synthesis Summary
  3. Analysis & Synthesis Settings
  4. Parallel Compilation
  5. Analysis & Synthesis Source Files Read
  6. Analysis & Synthesis Resource Usage Summary
  7. Analysis & Synthesis Resource Utilization by Entity
  8. State Machine - |ps2_keyboard_interface|m1_state
  9. Registers Removed During Synthesis
 10. General Register Statistics
 11. Multiplexer Restructuring Statistics (Restructuring Performed)
 12. Parameter Settings for User Entity Instance: Top-level Entity: |ps2_keyboard_interface
 13. Elapsed Time Per Partition
 14. Analysis & Synthesis Messages
 15. Analysis & Synthesis Suppressed Messages



----------------
; Legal Notice ;
----------------
Copyright (C) 1991-2011 Altera Corporation
Your use of Altera Corporation's design tools, logic functions 
and other software and tools, and its AMPP partner logic 
functions, and any output files from any of the foregoing 
(including device programming or simulation files), and any 
associated documentation or information are expressly subject 
to the terms and conditions of the Altera Program License 
Subscription Agreement, Altera MegaCore Function License 
Agreement, or other applicable license agreement, including, 
without limitation, that your use is for the sole purpose of 
programming logic devices manufactured by Altera and sold by 
Altera or its authorized distributors.  Please refer to the 
applicable agreement for further details.



+------------------------------------------------------------------------------------+
; Analysis & Synthesis Summary                                                       ;
+------------------------------------+-----------------------------------------------+
; Analysis & Synthesis Status        ; Successful - Sun Dec 16 20:29:33 2012         ;
; Quartus II 32-bit Version          ; 11.1 Build 259 01/25/2012 SP 2 SJ Web Edition ;
; Revision Name                      ; KeyboardIO                                    ;
; Top-level Entity Name              ; ps2_keyboard_interface                        ;
; Family                             ; Cyclone IV E                                  ;
; Total logic elements               ; 271                                           ;
;     Total combinational functions  ; 262                                           ;
;     Dedicated logic registers      ; 54                                            ;
; Total registers                    ; 54                                            ;
; Total pins                         ; 39                                            ;
; Total virtual pins                 ; 0                                             ;
; Total memory bits                  ; 0                                             ;
; Embedded Multiplier 9-bit elements ; 0                                             ;
; Total PLLs                         ; 0                                             ;
+------------------------------------+-----------------------------------------------+


+--------------------------------------------------------------------------------------------------------------------------+
; Analysis & Synthesis Settings                                                                                            ;
+----------------------------------------------------------------------------+------------------------+--------------------+
; Option                                                                     ; Setting                ; Default Value      ;
+----------------------------------------------------------------------------+------------------------+--------------------+
; Device                                                                     ; EP4CE115F29C7          ;                    ;
; Top-level entity name                                                      ; ps2_keyboard_interface ; KeyboardIO         ;
; Family name                                                                ; Cyclone IV E           ; Cyclone IV GX      ;
; Use smart compilation                                                      ; Off                    ; Off                ;
; Enable parallel Assembler and TimeQuest Timing Analyzer during compilation ; On                     ; On                 ;
; Enable compact report table                                                ; Off                    ; Off                ;
; Restructure Multiplexers                                                   ; Auto                   ; Auto               ;
; Create Debugging Nodes for IP Cores                                        ; Off                    ; Off                ;
; Preserve fewer node names                                                  ; On                     ; On                 ;
; Disable OpenCore Plus hardware evaluation                                  ; Off                    ; Off                ;
; Verilog Version                                                            ; Verilog_2001           ; Verilog_2001       ;
; VHDL Version                                                               ; VHDL_1993              ; VHDL_1993          ;
; State Machine Processing                                                   ; Auto                   ; Auto               ;
; Safe State Machine                                                         ; Off                    ; Off                ;
; Extract Verilog State Machines                                             ; On                     ; On                 ;
; Extract VHDL State Machines                                                ; On                     ; On                 ;
; Ignore Verilog initial constructs                                          ; Off                    ; Off                ;
; Iteration limit for constant Verilog loops                                 ; 5000                   ; 5000               ;
; Iteration limit for non-constant Verilog loops                             ; 250                    ; 250                ;
; Add Pass-Through Logic to Inferred RAMs                                    ; On                     ; On                 ;
; Infer RAMs from Raw Logic                                                  ; On                     ; On                 ;
; Parallel Synthesis                                                         ; On                     ; On                 ;
; DSP Block Balancing                                                        ; Auto                   ; Auto               ;
; NOT Gate Push-Back                                                         ; On                     ; On                 ;
; Power-Up Don't Care                                                        ; On                     ; On                 ;
; Remove Redundant Logic Cells                                               ; Off                    ; Off                ;
; Remove Duplicate Registers                                                 ; On                     ; On                 ;
; Ignore CARRY Buffers                                                       ; Off                    ; Off                ;
; Ignore CASCADE Buffers                                                     ; Off                    ; Off                ;
; Ignore GLOBAL Buffers                                                      ; Off                    ; Off                ;
; Ignore ROW GLOBAL Buffers                                                  ; Off                    ; Off                ;
; Ignore LCELL Buffers                                                       ; Off                    ; Off                ;
; Ignore SOFT Buffers                                                        ; On                     ; On                 ;
; Limit AHDL Integers to 32 Bits                                             ; Off                    ; Off                ;
; Optimization Technique                                                     ; Balanced               ; Balanced           ;
; Carry Chain Length                                                         ; 70                     ; 70                 ;
; Auto Carry Chains                                                          ; On                     ; On                 ;
; Auto Open-Drain Pins                                                       ; On                     ; On                 ;
; Perform WYSIWYG Primitive Resynthesis                                      ; Off                    ; Off                ;
; Auto ROM Replacement                                                       ; On                     ; On                 ;
; Auto RAM Replacement                                                       ; On                     ; On                 ;
; Auto DSP Block Replacement                                                 ; On                     ; On                 ;
; Auto Shift Register Replacement                                            ; Auto                   ; Auto               ;
; Allow Shift Register Merging across Hierarchies                            ; Auto                   ; Auto               ;
; Auto Clock Enable Replacement                                              ; On                     ; On                 ;
; Strict RAM Replacement                                                     ; Off                    ; Off                ;
; Allow Synchronous Control Signals                                          ; On                     ; On                 ;
; Force Use of Synchronous Clear Signals                                     ; Off                    ; Off                ;
; Auto RAM Block Balancing                                                   ; On                     ; On                 ;
; Auto RAM to Logic Cell Conversion                                          ; Off                    ; Off                ;
; Auto Resource Sharing                                                      ; Off                    ; Off                ;
; Allow Any RAM Size For Recognition                                         ; Off                    ; Off                ;
; Allow Any ROM Size For Recognition                                         ; Off                    ; Off                ;
; Allow Any Shift Register Size For Recognition                              ; Off                    ; Off                ;
; Use LogicLock Constraints during Resource Balancing                        ; On                     ; On                 ;
; Ignore translate_off and synthesis_off directives                          ; Off                    ; Off                ;
; Timing-Driven Synthesis                                                    ; On                     ; On                 ;
; Report Parameter Settings                                                  ; On                     ; On                 ;
; Report Source Assignments                                                  ; On                     ; On                 ;
; Report Connectivity Checks                                                 ; On                     ; On                 ;
; Ignore Maximum Fan-Out Assignments                                         ; Off                    ; Off                ;
; Synchronization Register Chain Length                                      ; 3                      ; 3                  ;
; PowerPlay Power Optimization                                               ; Normal compilation     ; Normal compilation ;
; HDL message level                                                          ; Level2                 ; Level2             ;
; Suppress Register Optimization Related Messages                            ; Off                    ; Off                ;
; Number of Removed Registers Reported in Synthesis Report                   ; 5000                   ; 5000               ;
; Number of Inverted Registers Reported in Synthesis Report                  ; 100                    ; 100                ;
; Clock MUX Protection                                                       ; On                     ; On                 ;
; Auto Gated Clock Conversion                                                ; Off                    ; Off                ;
; Block Design Naming                                                        ; Auto                   ; Auto               ;
; SDC constraint protection                                                  ; Off                    ; Off                ;
; Synthesis Effort                                                           ; Auto                   ; Auto               ;
; Shift Register Replacement - Allow Asynchronous Clear Signal               ; On                     ; On                 ;
; Analysis & Synthesis Message Level                                         ; Medium                 ; Medium             ;
; Disable Register Merging Across Hierarchies                                ; Auto                   ; Auto               ;
; Resource Aware Inference For Block RAM                                     ; On                     ; On                 ;
; Synthesis Seed                                                             ; 1                      ; 1                  ;
+----------------------------------------------------------------------------+------------------------+--------------------+


Parallel compilation was disabled, but you have multiple processors available. Enable parallel compilation to reduce compilation time.
+-------------------------------------+
; Parallel Compilation                ;
+----------------------------+--------+
; Processors                 ; Number ;
+----------------------------+--------+
; Number detected on machine ; 2      ;
; Maximum allowed            ; 1      ;
+----------------------------+--------+


+-------------------------------------------------------------------------------------------------------------------------------------+
; Analysis & Synthesis Source Files Read                                                                                              ;
+-----------------------------------------+-----------------+------------------------+------------------------------------------------+
; File Name with User-Entered Path        ; Used in Netlist ; File Type              ; File Name with Absolute Path                   ;
+-----------------------------------------+-----------------+------------------------+------------------------------------------------+
; ../Lab2 Counter/seven_segment_decoder.v ; yes             ; User Verilog HDL File  ; C:/altera/Lab2 Counter/seven_segment_decoder.v ;
; ps2_keyboard_interface.v                ; yes             ; User Verilog HDL File  ; C:/altera/Keyboard IO/ps2_keyboard_interface.v ;
+-----------------------------------------+-----------------+------------------------+------------------------------------------------+


+---------------------------------------------------------+
; Analysis & Synthesis Resource Usage Summary             ;
+---------------------------------------------+-----------+
; Resource                                    ; Usage     ;
+---------------------------------------------+-----------+
; Estimated Total logic elements              ; 271       ;
;                                             ;           ;
; Total combinational functions               ; 262       ;
; Logic element usage by number of LUT inputs ;           ;
;     -- 4 input functions                    ; 172       ;
;     -- 3 input functions                    ; 46        ;
;     -- <=2 input functions                  ; 44        ;
;                                             ;           ;
; Logic elements by mode                      ;           ;
;     -- normal mode                          ; 248       ;
;     -- arithmetic mode                      ; 14        ;
;                                             ;           ;
; Total registers                             ; 54        ;
;     -- Dedicated logic registers            ; 54        ;
;     -- I/O registers                        ; 0         ;
;                                             ;           ;
; I/O pins                                    ; 39        ;
; Maximum fan-out node                        ; clk~input ;
; Maximum fan-out                             ; 54        ;
; Total fan-out                               ; 1148      ;
; Average fan-out                             ; 2.90      ;
+---------------------------------------------+-----------+


+-----------------------------------------------------------------------------------------------------------------------------------------------------------------------------------------------------------------+
; Analysis & Synthesis Resource Utilization by Entity                                                                                                                                                             ;
+---------------------------------+-------------------+--------------+-------------+--------------+---------+-----------+------+--------------+----------------------------------------------------+--------------+
; Compilation Hierarchy Node      ; LC Combinationals ; LC Registers ; Memory Bits ; DSP Elements ; DSP 9x9 ; DSP 18x18 ; Pins ; Virtual Pins ; Full Hierarchy Name                                ; Library Name ;
+---------------------------------+-------------------+--------------+-------------+--------------+---------+-----------+------+--------------+----------------------------------------------------+--------------+
; |ps2_keyboard_interface         ; 262 (248)         ; 54 (54)      ; 0           ; 0            ; 0       ; 0         ; 39   ; 0            ; |ps2_keyboard_interface                            ;              ;
;    |seven_segment_decoder:seg0| ; 7 (7)             ; 0 (0)        ; 0           ; 0            ; 0       ; 0         ; 0    ; 0            ; |ps2_keyboard_interface|seven_segment_decoder:seg0 ;              ;
;    |seven_segment_decoder:seg1| ; 7 (7)             ; 0 (0)        ; 0           ; 0            ; 0       ; 0         ; 0    ; 0            ; |ps2_keyboard_interface|seven_segment_decoder:seg1 ;              ;
+---------------------------------+-------------------+--------------+-------------+--------------+---------+-----------+------+--------------+----------------------------------------------------+--------------+
Note: For table entries with two numbers listed, the numbers in parentheses indicate the number of resources of the given type used by the specific entity alone. The numbers listed outside of parentheses indicate the total resources of the given type used by the specific entity and all of its sub-entities in the hierarchy.


Encoding Type:  One-Hot
+-----------------------------------------------------------------------------------------------------------------------------------------------------------+
; State Machine - |ps2_keyboard_interface|m1_state                                                                                                          ;
+------------------------------------+------------------------------------+----------------------+----------------------+-----------------------------------+
; Name                               ; m1_state.m1_rx_falling_edge_marker ; m1_state.m1_rx_clk_l ; m1_state.m1_rx_clk_h ; m1_state.m1_rx_rising_edge_marker ;
+------------------------------------+------------------------------------+----------------------+----------------------+-----------------------------------+
; m1_state.m1_rx_clk_h               ; 0                                  ; 0                    ; 0                    ; 0                                 ;
; m1_state.m1_rx_clk_l               ; 0                                  ; 1                    ; 1                    ; 0                                 ;
; m1_state.m1_rx_falling_edge_marker ; 1                                  ; 0                    ; 1                    ; 0                                 ;
; m1_state.m1_rx_rising_edge_marker  ; 0                                  ; 0                    ; 1                    ; 1                                 ;
+------------------------------------+------------------------------------+----------------------+----------------------+-----------------------------------+


+--------------------------------------------------------------------------------+
; Registers Removed During Synthesis                                             ;
+---------------------------------------+----------------------------------------+
; Register name                         ; Reason for Removal                     ;
+---------------------------------------+----------------------------------------+
; rx_ascii[7]~reg0                      ; Stuck at GND due to stuck port data_in ;
; m1_state~2                            ; Lost fanout                            ;
; m1_state~4                            ; Lost fanout                            ;
; m1_state~5                            ; Lost fanout                            ;
; Total Number of Removed Registers = 4 ;                                        ;
+---------------------------------------+----------------------------------------+


+------------------------------------------------------+
; General Register Statistics                          ;
+----------------------------------------------+-------+
; Statistic                                    ; Value ;
+----------------------------------------------+-------+
; Total registers                              ; 54    ;
; Number of registers using Synchronous Clear  ; 27    ;
; Number of registers using Synchronous Load   ; 0     ;
; Number of registers using Asynchronous Clear ; 0     ;
; Number of registers using Asynchronous Load  ; 0     ;
; Number of registers using Clock Enable       ; 27    ;
; Number of registers using Preset             ; 0     ;
+----------------------------------------------+-------+


+----------------------------------------------------------------------------------------------------------------------------------------------------------------------------+
; Multiplexer Restructuring Statistics (Restructuring Performed)                                                                                                             ;
+--------------------+-----------+---------------+----------------------+------------------------+----------------------------------------------+----------------------------+
; Multiplexer Inputs ; Bus Width ; Baseline Area ; Area if Restructured ; Saving if Restructured ; Registered                                   ; Example Multiplexer Output ;
+--------------------+-----------+---------------+----------------------+------------------------+----------------------------------------------+----------------------------+
; 3:1                ; 10 bits   ; 20 LEs        ; 10 LEs               ; 10 LEs                 ; |ps2_keyboard_interface|q[9]                 ;                            ;
; 3:1                ; 4 bits    ; 8 LEs         ; 4 LEs                ; 4 LEs                  ; |ps2_keyboard_interface|bit_count[3]         ;                            ;
; 3:1                ; 17 bits   ; 34 LEs        ; 17 LEs               ; 17 LEs                 ; |ps2_keyboard_interface|rx_scan_code[4]~reg0 ;                            ;
+--------------------+-----------+---------------+----------------------+------------------------+----------------------------------------------+----------------------------+


+----------------------------------------------------------------------------------------+
; Parameter Settings for User Entity Instance: Top-level Entity: |ps2_keyboard_interface ;
+---------------------------+-------+----------------------------------------------------+
; Parameter Name            ; Value ; Type                                               ;
+---------------------------+-------+----------------------------------------------------+
; TIMER_60USEC_VALUE_PP     ; 2950  ; Signed Integer                                     ;
; TIMER_60USEC_BITS_PP      ; 12    ; Signed Integer                                     ;
; TIMER_5USEC_VALUE_PP      ; 186   ; Signed Integer                                     ;
; TIMER_5USEC_BITS_PP       ; 8     ; Signed Integer                                     ;
; TRAP_SHIFT_KEYS_PP        ; 0     ; Signed Integer                                     ;
; m1_rx_clk_h               ; 1     ; Signed Integer                                     ;
; m1_rx_clk_l               ; 0     ; Signed Integer                                     ;
; m1_rx_falling_edge_marker ; 13    ; Signed Integer                                     ;
; m1_rx_rising_edge_marker  ; 14    ; Signed Integer                                     ;
; m2_rx_data_ready          ; 1     ; Signed Integer                                     ;
; m2_rx_data_ready_ack      ; 0     ; Signed Integer                                     ;
+---------------------------+-------+----------------------------------------------------+
Note: In order to hide this table in the UI and the text report file, please set the "Show Parameter Settings in Synthesis Report" option in "Analysis and Synthesis Settings -> More Settings" to "Off".


+-------------------------------+
; Elapsed Time Per Partition    ;
+----------------+--------------+
; Partition Name ; Elapsed Time ;
+----------------+--------------+
; Top            ; 00:00:07     ;
+----------------+--------------+


+-------------------------------+
; Analysis & Synthesis Messages ;
+-------------------------------+
Info: *******************************************************************
Info: Running Quartus II 32-bit Analysis & Synthesis
    Info: Version 11.1 Build 259 01/25/2012 Service Pack 2 SJ Web Edition
    Info: Processing started: Sun Dec 16 20:29:23 2012
Info: Command: quartus_map --read_settings_files=on --write_settings_files=off KeyboardIO -c KeyboardIO
Warning (20028): Parallel compilation is not licensed and has been disabled
Info (12021): Found 1 design units, including 1 entities, in source file /altera/lab2 counter/seven_segment_decoder.v
    Info (12023): Found entity 1: seven_segment_decoder
Info (12021): Found 1 design units, including 1 entities, in source file keyboard.v
    Info (12023): Found entity 1: keyboard
Warning (10463): Verilog HDL Declaration warning at data_kb.v(8): "byte" is SystemVerilog-2005 keyword
Info (12021): Found 1 design units, including 1 entities, in source file data_kb.v
    Info (12023): Found entity 1: data_kb
Info (12021): Found 1 design units, including 1 entities, in source file binary_map_hex.v
    Info (12023): Found entity 1: binary_map_hex
Info (12021): Found 1 design units, including 1 entities, in source file ps2_keyboard_interface.v
    Info (12023): Found entity 1: ps2_keyboard_interface
Warning (10236): Verilog HDL Implicit Net warning at keyboard.v(11): created implicit net for "hex"
Info (12127): Elaborating entity "ps2_keyboard_interface" for the top level hierarchy
Warning (10230): Verilog HDL assignment warning at ps2_keyboard_interface.v(193): truncated value with size 32 to match size of target (1)
Warning (10230): Verilog HDL assignment warning at ps2_keyboard_interface.v(204): truncated value with size 32 to match size of target (1)
Warning (10230): Verilog HDL assignment warning at ps2_keyboard_interface.v(205): truncated value with size 32 to match size of target (1)
Warning (10230): Verilog HDL assignment warning at ps2_keyboard_interface.v(210): truncated value with size 32 to match size of target (1)
Warning (10230): Verilog HDL assignment warning at ps2_keyboard_interface.v(211): truncated value with size 32 to match size of target (1)
Warning (10230): Verilog HDL assignment warning at ps2_keyboard_interface.v(213): truncated value with size 32 to match size of target (1)
Warning (10230): Verilog HDL assignment warning at ps2_keyboard_interface.v(229): truncated value with size 32 to match size of target (4)
Warning (10230): Verilog HDL assignment warning at ps2_keyboard_interface.v(246): truncated value with size 32 to match size of target (12)
Warning (10230): Verilog HDL assignment warning at ps2_keyboard_interface.v(254): truncated value with size 32 to match size of target (8)
Info (12128): Elaborating entity "seven_segment_decoder" for hierarchy "seven_segment_decoder:seg0"
Warning (13024): Output pins are stuck at VCC or GND
    Warning (13410): Pin "rx_ascii[7]" is stuck at GND
Info (286030): Timing-Driven Synthesis is running
Info (17049): 3 registers lost all their fanouts during netlist optimizations. The first 3 are displayed below.
    Info (17050): Register "m1_state~2" lost all its fanouts during netlist optimizations.
    Info (17050): Register "m1_state~4" lost all its fanouts during netlist optimizations.
    Info (17050): Register "m1_state~5" lost all its fanouts during netlist optimizations.
Info (144001): Generated suppressed messages file C:/altera/Keyboard IO/KeyboardIO.map.smsg
Info (16010): Generating hard_block partition "hard_block:auto_generated_inst"
Info (21057): Implemented 317 device resources after synthesis - the final resource count might be different
    Info (21058): Implemented 3 input pins
    Info (21059): Implemented 34 output pins
    Info (21060): Implemented 2 bidirectional pins
    Info (21061): Implemented 278 logic cells
Info: Quartus II 32-bit Analysis & Synthesis was successful. 0 errors, 14 warnings
    Info: Peak virtual memory: 285 megabytes
    Info: Processing ended: Sun Dec 16 20:29:33 2012
    Info: Elapsed time: 00:00:10
    Info: Total CPU time (on all processors): 00:00:09


+------------------------------------------+
; Analysis & Synthesis Suppressed Messages ;
+------------------------------------------+
The suppressed messages can be found in C:/altera/Keyboard IO/KeyboardIO.map.smsg.


